﻿Яспи Jaspi;;"Яспи &#8212; просторный и вместительный набор для гостиной. Современный дизайн, рифленые декоративные вставки, различные текстуры и квадратные ручки &#8212; основные отличия комплекта.";45wgfqoe.jpg;"<div >
				
	<h2>Дополнительная информация</h2>

<table class=""shop_attributes"">

	
		
		
	
			<tr class="""">
			<th>Цвет</th>
			<td><p>Венге, Венге/белый глянец, Орех салев, Орех салев/белый глянец</p>
</td>
		</tr>
			<tr class=""alt"">
			<th>Ширина</th>
			<td><p>295</p>
</td>
		</tr>
			<tr class="""">
			<th>Высота</th>
			<td><p>197,5</p>
</td>
		</tr>
			<tr class=""alt"">
			<th>Глубина</th>
			<td><p>52,5</p>
</td>
		</tr>
	
</table>
			</div>";http://gerbor.com.ua/product/jaspi/
Сансет Sunset;;"Сансет &#8212; роскошный благородный набор для гостиной комнаты. Набор сочетает в себе насыщенный цвет &#171;дуб сонома&#187; и &#171;белый&#187;, продолговатые удобные ручки, стеклянные витрины, которые наполнят гостинную легкостью, свежестью и уютом.";dyyrwoki.jpg;"<div >
				
	<h2>Дополнительная информация</h2>

<table class=""shop_attributes"">

	
		
		
	
			<tr class="""">
			<th>Цвет</th>
			<td><p>Дуб сонома/белый</p>
</td>
		</tr>
			<tr class=""alt"">
			<th>Ширина</th>
			<td><p>270</p>
</td>
		</tr>
			<tr class="""">
			<th>Высота</th>
			<td><p>200</p>
</td>
		</tr>
			<tr class=""alt"">
			<th>Глубина</th>
			<td><p>40</p>
</td>
		</tr>
	
</table>
			</div>";http://gerbor.com.ua/product/sunset/
Эдо Edo;;"Эдо &#8212; функциональный мебельный комплект, который не занимает много пространства. Полуоткрытый пенал и нестандартный цвет фасада акцентируют на себе внимание, украшая Вашу комнату.";n2f2sin5.jpg;"<div >
				
	<h2>Дополнительная информация</h2>

<table class=""shop_attributes"">

	
		
		
	
			<tr class="""">
			<th>Цвет</th>
			<td><p>Венге магия, Орех балтимор</p>
</td>
		</tr>
			<tr class=""alt"">
			<th>Ширина</th>
			<td><p>265</p>
</td>
		</tr>
			<tr class="""">
			<th>Высота</th>
			<td><p>181</p>
</td>
		</tr>
			<tr class=""alt"">
			<th>Глубина</th>
			<td><p>44</p>
</td>
		</tr>
	
</table>
			</div>";http://gerbor.com.ua/product/edo/
Ректус Rektus;;"Ректус &#8212; интересное сочетание темных цветов и текстур подойдет самым взыскательным вкусовым потребностям. Темный металлический цвет ручек подчеркивает и дополняет стиль комплекта, а стеклянная вставка в навесной полке облегчает и завершает необычный стиль. Простая в исполнении, система великолепно впишется в любую гостиную.";ql0fswta.jpg;"<div >
				
	<h2>Дополнительная информация</h2>

<table class=""shop_attributes"">

	
		
		
	
			<tr class="""">
			<th>Цвет</th>
			<td><p>Венге магия, Орех калифорнийский</p>
</td>
		</tr>
			<tr class=""alt"">
			<th>Ширина</th>
			<td><p>280</p>
</td>
		</tr>
			<tr class="""">
			<th>Высота</th>
			<td><p>192,5</p>
</td>
		</tr>
			<tr class=""alt"">
			<th>Глубина</th>
			<td><p>51,5</p>
</td>
		</tr>
	
</table>
			</div>";http://gerbor.com.ua/product/rektus-rektus/
Лена Lena;;"Лена &#8212; максимальное удобство и функциональность. Вместительные элементы разместят все необходимые Вам вещи. Стильный лаконичный дизайн исветлые цветовые решения украсят Вашу гостиную.";bm2dihhm.jpg;"<div >
				
	<h2>Дополнительная информация</h2>

<table class=""shop_attributes"">

	
		
		
	
			<tr class="""">
			<th>Цвет</th>
			<td><p>Белый, Дуб сонома темный</p>
</td>
		</tr>
			<tr class=""alt"">
			<th>Ширина</th>
			<td><p>228</p>
</td>
		</tr>
			<tr class="""">
			<th>Высота</th>
			<td><p>190</p>
</td>
		</tr>
			<tr class=""alt"">
			<th>Глубина</th>
			<td><p>42</p>
</td>
		</tr>
	
</table>
			</div>";http://gerbor.com.ua/product/lena-lena/
Петио Petio;;"Петио &#8212; практичный мебельный комплект для гостиной. Мощный корпус великолепно сочитается с интересным рельефным рисунком на ручках. Интересное сочетание текстур сделает Ваш интерьер незабываемым.";k3jg4yu1.jpg;"<div >
				
	<h2>Дополнительная информация</h2>

<table class=""shop_attributes"">

	
		
		
	
			<tr class="""">
			<th>Цвет</th>
			<td><p>Венге магия, Дуб сонома, Штрокс темный</p>
</td>
		</tr>
			<tr class=""alt"">
			<th>Ширина</th>
			<td><p>310</p>
</td>
		</tr>
			<tr class="""">
			<th>Высота</th>
			<td><p>200</p>
</td>
		</tr>
			<tr class=""alt"">
			<th>Глубина</th>
			<td><p>52</p>
</td>
		</tr>
	
</table>
			</div>";http://gerbor.com.ua/product/petio-petio/
Лион Lyon;;"Лион &#8212; просторный и вместительный набор для гостиной. Современный дизайн, функциональные элементы и прямоугольные вытянутые ручки, витрины, открытые стеллажи &#8212; основные отличия комплекта.";erbxidlg.jpg;"<div >
				
	<h2>Дополнительная информация</h2>

<table class=""shop_attributes"">

	
		
		
	
			<tr class="""">
			<th>Цвет</th>
			<td><p>Дуб сонома</p>
</td>
		</tr>
			<tr class=""alt"">
			<th>Ширина</th>
			<td><p>310</p>
</td>
		</tr>
			<tr class="""">
			<th>Высота</th>
			<td><p>203</p>
</td>
		</tr>
			<tr class=""alt"">
			<th>Глубина</th>
			<td><p>48</p>
</td>
		</tr>
	
</table>
			</div>";http://gerbor.com.ua/product/lyon/
Ламия Lamia;;"Ламия &#8212; функциональный мебельный комплект для гостиной комнаты. Достаточное колличество вместительных секций и новая светлая текстура фасада будут радовать Вас. Изготовленный из ламинированного ДСП, он прослужит долго и надежно.";cejpmpll.jpg;"<div >
				
	<h2>Дополнительная информация</h2>

<table class=""shop_attributes"">

	
		
		
	
			<tr class="""">
			<th>Цвет</th>
			<td><p>Венге магия, Палио</p>
</td>
		</tr>
			<tr class=""alt"">
			<th>Ширина</th>
			<td><p>260,5</p>
</td>
		</tr>
			<tr class="""">
			<th>Высота</th>
			<td><p>194</p>
</td>
		</tr>
			<tr class=""alt"">
			<th>Глубина</th>
			<td><p>51,5</p>
</td>
		</tr>
	
</table>
			</div>";http://gerbor.com.ua/product/lamiya/
Селин Celine;;"Селин &#8212; современный мебельный набор. Выполнен в стиле минимализм: белые глянцевые поверхности фасадов, плоские ручки, стеклянные витрины. Интересное сочетание подойдет самым взыскательным вкусовым потребностям.";21kw1c05.jpg;"<div >
				
	<h2>Дополнительная информация</h2>

<table class=""shop_attributes"">

	
		
		
	
			<tr class="""">
			<th>Цвет</th>
			<td><p>Белый/белый глянец</p>
</td>
		</tr>
			<tr class=""alt"">
			<th>Ширина</th>
			<td><p>276</p>
</td>
		</tr>
			<tr class="""">
			<th>Высота</th>
			<td><p>191</p>
</td>
		</tr>
			<tr class=""alt"">
			<th>Глубина</th>
			<td><p>45.5</p>
</td>
		</tr>
	
</table>
			</div>";http://gerbor.com.ua/product/celine/
Кватро Quatro;;"Кватро &#8212; компактная стенка, соответствующая своему названию и современным тенденциям дизайна мебели. Практичный темный цвет в сочетании с простыми геометрическими формами смотрятся интересно и динамично. Просторные елементы &#8212; практичная сторона данного комплекта.";1o4g4skp.jpg;"<div >
				
	<h2>Дополнительная информация</h2>

<table class=""shop_attributes"">

	
		
		
	
			<tr class="""">
			<th>Цвет</th>
			<td><p>Венге магия, Дуб ливанский</p>
</td>
		</tr>
			<tr class=""alt"">
			<th>Ширина</th>
			<td><p>200</p>
</td>
		</tr>
			<tr class="""">
			<th>Высота</th>
			<td><p>190</p>
</td>
		</tr>
			<tr class=""alt"">
			<th>Глубина</th>
			<td><p>40,5</p>
</td>
		</tr>
	
</table>
			</div>";http://gerbor.com.ua/product/kvatro/
Кайо Cayo;;"Кайо &#8212; красивое сочетание темных текстур, продолговатые современные ручки и необычная динамичная форма &#8212; вместе создают оригинальный геометричный комплект.";strle05h.jpg;"<div >
				
	<h2>Дополнительная информация</h2>

<table class=""shop_attributes"">

	
		
		
	
			<tr class="""">
			<th>Цвет</th>
			<td><p>Антрацит, Маккасар</p>
</td>
		</tr>
			<tr class=""alt"">
			<th>Ширина</th>
			<td><p>268,5</p>
</td>
		</tr>
			<tr class="""">
			<th>Высота</th>
			<td><p>220</p>
</td>
		</tr>
			<tr class=""alt"">
			<th>Глубина</th>
			<td><p>44,5</p>
</td>
		</tr>
	
</table>
			</div>";http://gerbor.com.ua/product/kajo/
Кайли Kylie;;"Кайли &#8212; функциональный мебельный комплект. Стеклянные витрины и светлый цвет фасада акцентируют на себе внимание. Простая в исполнении, система великолепно впишется в любую гостиную.";njbracer.jpg;"<div >
				
	<h2>Дополнительная информация</h2>

<table class=""shop_attributes"">

	
		
		
	
			<tr class="""">
			<th>Цвет</th>
			<td><p>Белый/белый глянец</p>
</td>
		</tr>
			<tr class=""alt"">
			<th>Ширина</th>
			<td><p>280</p>
</td>
		</tr>
			<tr class="""">
			<th>Высота</th>
			<td><p>195</p>
</td>
		</tr>
			<tr class=""alt"">
			<th>Глубина</th>
			<td><p>45.5</p>
</td>
		</tr>
	
</table>
			</div>";http://gerbor.com.ua/product/kylie/
Кармела Karmela;;"Кармела &#8212; мебель для создания стильного интерьера. Три варианта цвета: «белый», для создания легкого и современного интерьера; «дуб сонома» &#8212; придаст помещению теплый и натуральный оттенок; «венге магия/штрокс темный» &#8212; солидный и практичный.";kjptf5jx.jpg;"<div >
				
	<h2>Дополнительная информация</h2>

<table class=""shop_attributes"">

	
		
		
	
			<tr class="""">
			<th>Цвет</th>
			<td><p>Белый, Венге магия, Дуб сонома, Штрокс темный</p>
</td>
		</tr>
			<tr class=""alt"">
			<th>Ширина</th>
			<td><p>240</p>
</td>
		</tr>
			<tr class="""">
			<th>Высота</th>
			<td><p>190</p>
</td>
		</tr>
			<tr class=""alt"">
			<th>Глубина</th>
			<td><p>43,5</p>
</td>
		</tr>
	
</table>
			</div>";http://gerbor.com.ua/product/karmela/
Имперор Imperor;;"Имперор &#8212; основными отличиями комплекта являются простые геометрические формы, вместительные элементы и плоские продолговатые ручки. Два варианта цвета набора: нежный и теплый светлый оттенок дуба и насывенный цвет венге, великолепно впишутся в любой интерьер гостиной комнаты.";dgo5uwln.jpg;"<div >
				
	<h2>Дополнительная информация</h2>

<table class=""shop_attributes"">

	
		
		
	
			<tr class="""">
			<th>Цвет</th>
			<td><p>Венге магия, Дуб сонома</p>
</td>
		</tr>
			<tr class=""alt"">
			<th>Ширина</th>
			<td><p>300</p>
</td>
		</tr>
			<tr class="""">
			<th>Высота</th>
			<td><p>153-196</p>
</td>
		</tr>
			<tr class=""alt"">
			<th>Глубина</th>
			<td><p>50</p>
</td>
		</tr>
	
</table>
			</div>";http://gerbor.com.ua/product/imperor/
Барато Barato;;"Барато &#8212; прямие формы и прямоугольная пластика &#8212; современная тенденция. Необычное сочетание цветов добавляет контраст и нестандартность исполнения. Комплект состоит из нескрепленных между собой элементов, что позволяет скомбинировать удобную для Вас ширину стенки.";2a3jimha.jpg;"<div >
				
	<h2>Дополнительная информация</h2>

<table class=""shop_attributes"">

	
		
		
	
			<tr class="""">
			<th>Цвет</th>
			<td><p>Слива венгерская, Черный блеск/глянец</p>
</td>
		</tr>
			<tr class=""alt"">
			<th>Ширина</th>
			<td><p>240</p>
</td>
		</tr>
			<tr class="""">
			<th>Высота</th>
			<td><p>190</p>
</td>
		</tr>
			<tr class=""alt"">
			<th>Глубина</th>
			<td><p>40</p>
</td>
		</tr>
	
</table>
			</div>";http://gerbor.com.ua/product/barato/
Калипсо Kalipso;;"Калипсо &#8212; отличиями комплекта являются плоские продолговатые ручки, современный дизайн, использование стекол в витринах. Подойдет для небольших помещений";zhkhdivs.jpg;"<div >
				
	<h2>Дополнительная информация</h2>

<table class=""shop_attributes"">

	
		
		
	
			<tr class="""">
			<th>Цвет</th>
			<td><p>Белый, Венге магия, Дуб сонома, Штрокс темный</p>
</td>
		</tr>
			<tr class=""alt"">
			<th>Ширина</th>
			<td><p>240</p>
</td>
		</tr>
			<tr class="""">
			<th>Высота</th>
			<td><p>190</p>
</td>
		</tr>
			<tr class=""alt"">
			<th>Глубина</th>
			<td><p>43,5</p>
</td>
		</tr>
	
</table>
			</div>";http://gerbor.com.ua/product/kalipso/
Аргус Argus;;"Аргус &#8212; максимальное удобство и функциональность. Вместительные элементы разместят все необходимые Вам вещи. Стильный лаконичный дизайн и разнообразное цветовое решение украсят Вашу гостинную.";4e5odzax.jpg;"<div >
				
	<h2>Дополнительная информация</h2>

<table class=""shop_attributes"">

	
		
		
	
			<tr class="""">
			<th>Цвет</th>
			<td><p>Белый, Венге магия, Дуб сонома, Штрокс темный</p>
</td>
		</tr>
			<tr class=""alt"">
			<th>Ширина</th>
			<td><p>280</p>
</td>
		</tr>
			<tr class="""">
			<th>Высота</th>
			<td><p>190</p>
</td>
		</tr>
			<tr class=""alt"">
			<th>Глубина</th>
			<td><p>43,5</p>
</td>
		</tr>
	
</table>
			</div>";http://gerbor.com.ua/product/argus-argus/
Милена Milena;;"Милена &#8212; современная мини-стенка для гостиной, котора я подобрана с учетом стиля, характера и вкуса. Включает в себя все необходимые элементы для функционального использования. Гостиная &#8212; это центруюта и гармонии, являеться олицетворением вкуса хозяев. Имено здесь Вы собираетесь всей семьей и принимаете гостей.";xj1dlb4i.jpg;"<div >
				
	<h2>Дополнительная информация</h2>

<table class=""shop_attributes"">

	
		
		
	
			<tr class="""">
			<th>Цвет</th>
			<td><p>Белый, Дуб сонома</p>
</td>
		</tr>
			<tr class=""alt"">
			<th>Ширина</th>
			<td><p>228</p>
</td>
		</tr>
			<tr class="""">
			<th>Высота</th>
			<td><p>190</p>
</td>
		</tr>
			<tr class=""alt"">
			<th>Глубина</th>
			<td><p>42</p>
</td>
		</tr>
	
</table>
			</div>";http://gerbor.com.ua/product/milena-milena/
Акона Akona;;"Акона &#8212; прямые геометричные формы, прямоугольные ручки, насищенный цвет вишни и практичные элементи &#8212; станут функциональным и красивым наполнением Вашей гостиной";ihcehrp5.jpg;"<div >
				
	<h2>Дополнительная информация</h2>

<table class=""shop_attributes"">

	
		
		
	
			<tr class="""">
			<th>Цвет</th>
			<td><p>Вишня малага</p>
</td>
		</tr>
			<tr class=""alt"">
			<th>Ширина</th>
			<td><p>311,5</p>
</td>
		</tr>
			<tr class="""">
			<th>Высота</th>
			<td><p>195</p>
</td>
		</tr>
			<tr class=""alt"">
			<th>Глубина</th>
			<td><p>56,5</p>
</td>
		</tr>
	
</table>
			</div>";http://gerbor.com.ua/product/akona-akona/
Ада Ada;;"Ада &#8212; набор для гостиной, отлично подойдет для обустройства небольшого пространства. Прямые формы и контрастные цветовые сочетания смотрятся стильно.Включает в себя все необходимые элементы для функционального использования.";1au2ofv1.jpg;"<div >
				
	<h2>Дополнительная информация</h2>

<table class=""shop_attributes"">

	
		
		
	
			<tr class="""">
			<th>Цвет</th>
			<td><p>Белый, Дуб сонома</p>
</td>
		</tr>
			<tr class=""alt"">
			<th>Ширина</th>
			<td><p>280</p>
</td>
		</tr>
			<tr class="""">
			<th>Высота</th>
			<td><p>190</p>
</td>
		</tr>
			<tr class=""alt"">
			<th>Глубина</th>
			<td><p>43</p>
</td>
		</tr>
	
</table>
			</div>";http://gerbor.com.ua/product/ada-ada/
Аврора;;;ay5c3bpz.jpg;"<div >
				
	<h2>Дополнительная информация</h2>

<table class=""shop_attributes"">

	
		
		
	
			<tr class="""">
			<th>Цвет</th>
			<td><p>Белый глянец, Венге магия, Дуб сонома, Штрокс темный</p>
</td>
		</tr>
			<tr class=""alt"">
			<th>Ширина</th>
			<td><p>120</p>
</td>
		</tr>
			<tr class="""">
			<th>Высота</th>
			<td><p>82</p>
</td>
		</tr>
			<tr class=""alt"">
			<th>Глубина</th>
			<td><p>45.3</p>
</td>
		</tr>
	
</table>
			</div>";http://gerbor.com.ua/product/avrora/
